{
    "data":{
        "content":[
            {
                "active":true,
                "type": 1,
                "sitio":"Suc 48564",
                "ip": "10.115.95.980025485",
                "interfacesActivas": "2/5"
            },
            {
                "active":true,
                "type": 2,
                "sitio":"Suc 48564",
                "ip": "10.115.95.980025485",
                "interfacesActivas": "1/2"
            },
            {
                "active":true,
                "type": 3,
                "sitio":"Suc 48564",
                "ip": "10.115.95.980025485",
                "interfacesActivas": "3/5"
            },
            {
                "active":false,
                "type": 1,
                "sitio":"Suc 48564",
                "ip": "10.115.95.980025485",
                "interfacesActivas": "0/14"
            },
            {
                "active":true,
                "type": 2,
                "sitio":"Suc 48564",
                "ip": "10.115.95.980025485",
                "interfacesActivas": "2/13"
            },
            {
                "active":false,
                "type": 3,
                "sitio":"Suc 48564",
                "ip": "10.115.95.980025485",
                "interfacesActivas": "0/5"
            }
        ],
        "pageable":{
            "sort":{
                "sorted":true,
                "unsorted":false,
                "empty":false
            },
            "pageNumber":0,
            "pageSize":5,
            "offset":0,
            "unpaged":false,
            "paged":true
        },
        "last":false,
        "totalPages":8,
        "totalElements":37,
        "sort":{
            "sorted":true,
            "unsorted":false,
            "empty":false
        },
        "numberOfElements":5,
        "first":true,
        "size":5,
        "number":0,
        "empty":false
    }
}