{
    "content":[
        {
            "id":221,
            "idEmpresa": "124-oxxo",
            "nombre":"Cadena Comercial OXXO, S.A. de C.V.",
            "paquete":"Premuim",
            "puntasActivas":129,
            "idEstatus":1,
            "estatus":"Nuevo",
            "numeroUsuarios":"1/10",
            "detalle":{

            },
            "favorito": true
        },
        {
            "id":221,
            "idEmpresa": "124-oxxo",
            "nombre":"Cadena Comercial OXXO, S.A. de C.V.",
            "paquete":"Premuim",
            "puntasActivas":129,
            "idEstatus":1,
            "estatus":"Nuevo",
            "numeroUsuarios":"1/10",
            "detalle":{

            },
            "favorito": false
        },
        {
            "id":221,
            "idEmpresa": "124-oxxo",
            "nombre":"Cadena Comercial OXXO, S.A. de C.V.",
            "paquete":"Premuim",
            "puntasActivas":129,
            "idEstatus":1,
            "estatus":"Nuevo",
            "numeroUsuarios":"1/10",
            "detalle":{

            },
            "favorito": false
        },
        {
            "id":221,
            "idEmpresa": "124-oxxo",
            "nombre":"Cadena Comercial OXXO, S.A. de C.V.",
            "paquete":"Premuim",
            "puntasActivas":129,
            "idEstatus":1,
            "estatus":"Nuevo",
            "numeroUsuarios":"1/10",
            "detalle":{

            },
            "favorito": false
        }
    ],
    "last":false,
    "totalPages":3,
    "totalElements":13,
    "sort":{
        "sorted":false,
        "unsorted":true,
        "empty":true
    },
    "numberOfElements":5,
    "first":true,
    "size":5,
    "number":0,
    "empty":false
}